…
  "2020-7-27", 9.71, 17.0,
  "2020-7-28", 9.74, 16.4,
  "2020-7-29", 10.1, 16.7, 
  "2020-7-30", 9.0, 16.8,
  "2020-7-31", 9.0, 16.0,
  "2020-8-1", 9.2, 16.2,
  "2020-8-2", 9.0, 16.0,
  "2020-8-3", 9.4, 16.1
)  %>%
  dplyr::mutate(
    dplyr::across(Date, as.Date)
  )
data

## # A tibble: 23 × 3
##    Date       No.Mask  Mask
##    <date>       <dbl> <dbl>
##  1 2020-07-12     9.8  25.5
##  2 2020-07-13     9    19.9
##  3 2020-07-14     9.5  19.8
##  4 2020-07-15     9.8  20.5
##  5 2020-07-16     9.7  20  
##  6 2020-07-17     9.7  20  
##  7 2020-07-18     9    20.5
##  8 2020-07-19     8.8  20.1
##  9 2020-07-20     8.8  20.5
## 10 2020-07-21     8.9  21.5
## # … with 13 more rows
…
