…
## Loading required package: pacman

pacman::p_load(pacman, magrittr, productplots, psych, RColorBrewer, tidyverse)

names(happy)

##  [1] "id"      "happy"   "year"    "age"     "sex"     "marital" "degree" 
##  [8] "finrela" "health"  "wtssall"

df <- happy %>%
  as_tibble() %>%
  print()

## # A tibble: 51,020 × 10
##       id happy          year   age sex    marital  degree finrela health wtssall
##    <dbl> <fct>         <dbl> <dbl> <fct>  <fct>    <fct>  <fct>   <fct>    <dbl>
##  1     1 not too happy  1972    23 female never m… bache… average good     0.445
##  2     2 not too happy  1972    70 male   married  lt hi… above … fair     0.889
##  3     3 pretty happy   1972    48 female married  high … average excel…   0.889
##  4     4 not too happy  1972    27 female married  bache… average good     0.889
##  5     5 pretty happy   1972    61 female married  high … above … good     0.889
##  6     6 pretty happy   1972    26 male   never m… high … above … good     0.445
##  7     7 not too happy  1972    28 male   divorced high … above … excel…   0.445
##  8     8 not too happy  1972    27 male   never m… bache… average good     0.445
##  9     9 pretty happy   1972    21 female never m… high … average excel…   0.445
## 10    10 pretty happy   1972    30 female married  high … below … fair     0.889
## # … with 51,010 more rows

df %<>%
  select(happy:health) %>%
  print()

## # A tibble: 51,020 × 8
##    happy          year   age sex    marital       degree         finrela  health
##    <fct>         <dbl> <dbl> <fct>  <fct>         <fct>          <fct>    <fct> 
##  1 not too happy  1972    23 female never married bachelor       average  good  
##  2 not too happy  1972    70 male   married       lt high school above a… fair  
##  3 pretty happy   1972    48 female married       high school    average  excel…
##  4 not too happy  1972    27 female married       bachelor       average  good  
##  5 pretty happy   1972    61 female married       high school    above a… good  
##  6 pretty happy   1972    26 male   never married high school    above a… good  
##  7 not too happy  1972    28 male   divorced      high school    above a… excel…
##  8 not too happy  1972    27 male   never married bachelor       average  good  
##  9 pretty happy   1972    21 female never married high school    average  excel…
## 10 pretty happy   1972    30 female married       high school    below a… fair  
## # … with 51,010 more rows
…
