…
Pros: It is a straight forward way to gather estimates of standard error and confidence intervals. It does not need a lot of data. It can use a small data set. It also handles outliers well.
Cons: It takes a lot of computational time. There is also a decent margin or error. It can also fail when distributions are not finite.

Identify suitable predictor and predicted variables

I used the the price of unit area to predict house age. I tried other predictors like latitude to predict distance to the nearest MRT station, but the curve was very broad, so I did not use that one.

Import Data

library(readxl)
library(boot)
df <- read_excel("~/Desktop/Real estate valuation data set.xlsx")
df

## # A tibble: 414 × 8
##       No `X1 transaction date` `X2 house age` `X3 distance to…` `X4 number of …`
##    <dbl>                 <dbl>          <dbl>             <dbl>            <dbl>
##  1     1                 2013.           32                84.9               10
##  2     2                 2013.           19.5             307.                 9
##  3     3                 2014.           13.3             562.                 5
##  4     4                 2014.           13.3             562.                 5
##  5     5                 2013.            5               391.                 5
##  6     6                 2013.            7.1            2175.                 3
##  7     7                 2013.           34.5             623.                 7
##  8     8                 2013.           20.3             288.                 6
##  9     9                 2014.           31.7            5512.                 1
## 10    10                 2013.           17.9            1783.                 3
## # … with 404 more rows, and 3 more variables: `X5 latitude` <dbl>,
## #   `X6 longitude` <dbl>, `Y house price of unit area` <dbl>
…
